0.000000	4.721624	bismillah
4.721682	36.750573	004001
36.750573	56.415338	004002
56.415338	82.238143	004003
82.238143	101.353557	004004
101.641505	118.274696	004005
118.274696	162.883869	004006
163.027878	186.845590	004007
186.845590	199.591735	004008
199.591735	214.609065	004009
214.609065	229.720763	004010
229.848019	306.534973	004011
306.534973	390.776802	004012
390.905213	409.964764	004013
410.085832	426.419417	004014
426.764242	451.057859	004015
451.237827	466.289757	004016
466.289757	488.314786	004017
488.314786	515.928637	004018
516.296223	557.881514	004019
558.133469	577.298162	004020
577.415873	588.624275	004021
588.715076	608.758350	004022
608.758350	676.388990	004023
676.388990	725.412355	004024
725.736296	800.350991	004025
801.147015	816.086344	004026
816.257559	829.961071	004027
829.961071	840.254140	004028
840.254140	870.035289	004029
870.035289	883.097417	004030
883.097417	899.330493	004031
899.546454	928.740503	004032
928.740503	950.372607	004033
951.536498	999.747401	004034
999.747401	1021.096103	004035
1021.276070	1053.645384	004036
1053.645384	1071.643729	004037
1071.921953	1093.627015	004038
1093.627015	1108.759019	004039
1108.759019	1121.446734	004040
1121.446734	1135.506851	004041
1136.051654	1147.934682	004042
1148.036487	1207.401207	004043
1207.859330	1220.067205	004044
1220.195199	1232.321281	004045
1232.681216	1272.614727	004046
1272.974662	1305.129599	004047
1305.129599	1325.641224	004048
1325.641224	1339.415254	004049
1339.415254	1352.162930	004050
1352.162930	1372.001826	004051
1372.230887	1385.599852	004052
1385.599852	1393.240265	004053
1393.342070	1414.822467	004054
1415.367269	1426.563256	004055
1426.563256	1448.067732	004056
1448.220440	1475.868294	004057
1476.039509	1505.471590	004058
1505.471590	1540.958565	004059
1540.958565	1571.853088	004060
1571.853088	1585.209014	004061
1585.451409	1607.743173	004062
1607.928010	1624.830209	004063
1624.830209	1649.385593	004064
1649.853509	1668.473833	004065
1668.473833	1693.378191	004066
1693.378191	1702.817262	004067
1702.817262	1708.938198	004068
1709.451843	1731.829569	004069
1732.007728	1739.668557	004070
1739.668557	1751.402993	004071
1751.402993	1768.257516	004072
1768.599946	1786.307775	004073
1786.595310	1804.870966	004074
1805.361772	1835.202127	004075
1835.202127	1859.835510	004076
1859.835510	1910.925901	004077
1910.925901	1950.854199	004078
1951.298942	1975.152092	004079
1975.152092	1988.867564	004080
1989.167190	2013.796206	004081
2014.084154	2032.578697	004082
2032.578697	2060.250925	004083
2060.250925	2081.053545	004084
2081.053545	2103.451965	004085
2103.451965	2118.935967	004086
2119.128584	2136.520291	004087
2136.520291	2157.454871	004088
2157.454871	2186.673171	004089
2186.673171	2224.681910	004090
2224.681910	2261.731170	004091
2261.731170	2325.116981	004092
2325.116981	2343.890343	004093
2343.890343	2384.560076	004094
2384.998945	2418.314626	004095
2418.476597	2429.022482	004096
2429.077497	2464.735832	004097
2464.735832	2477.666725	004098
2478.062654	2489.615698	004099
2489.754810	2518.583760	004100
2518.583760	2539.234802	004101
2539.234802	2608.085453	004102
2608.311299	2630.570033	004103
2630.570033	2653.068309	004104
2653.605567	2675.102554	004105
2675.102554	2683.595731	004106
2683.595731	2696.554992	004107
2696.554992	2713.152112	004108
2713.359813	2735.439206	004109
2735.620807	2748.705779	004110
2748.705779	2760.012273	004111
2760.012273	2776.767064	004112
2776.956029	2813.421372	004113
2813.587840	2838.788955	004114
2838.992565	2858.791880	004115
2859.003748	2876.497358	004116
2876.497358	2889.496137	004117
2889.496137	2899.293343	004118
2899.464558	2927.288802	004119
2927.485536	2935.955528	004120
2935.955528	2946.031842	004121
2946.211809	2967.400237	004122
2967.400237	2986.310370	004123
2986.535089	3002.166980	004124
3002.357865	3018.938226	004125
3018.938226	3029.898146	004126
3030.397931	3074.507489	004127
3075.067417	3103.778463	004128
3103.778463	3128.003173	004129
3128.147147	3138.922615	004130
3138.922615	3164.811841	004131
3164.811841	3173.030723	004132
3173.030723	3185.080186	004133
3185.080186	3200.856467	004134
3200.856467	3240.459810	004135
3240.913812	3271.207559	004136
3271.570761	3289.052791	004137
3289.213119	3294.720127	004138
3294.720127	3310.143774	004139
3310.269751	3339.856422	004140
3340.086885	3374.582540	004141
3374.837052	3393.790149	004142
3394.019211	3416.943658	004143
3417.649335	3436.250598	004144
3436.250598	3448.596034	004145
3448.774193	3467.310291	004146
3467.310291	3479.183304	004147
3479.556261	3491.710208	004148
3491.710208	3507.133764	004149
3507.411989	3529.194180	004150
3529.428138	3540.735962	004151
3540.885775	3558.232626	004152
3558.232626	3600.874270	004153
3601.408747	3618.933226	004154
3619.257167	3643.505032	004155
3643.654530	3649.663867	004156
3649.663867	3682.379826	004157
3682.379826	3691.454221	004158
3692.145701	3704.383024	004159
3704.523006	3718.655278	004160
3718.998870	3733.379729	004161
3733.470530	3765.598737	004162
3765.598737	3797.864195	004163
3797.864195	3810.608974	004164
3810.608974	3824.752514	004165
3825.022466	3840.934665	004166
3840.934665	3849.556845	004167
3849.717359	3858.706991	004168
3858.850966	3869.289085	004169
3869.519019	3892.406819	004170
3893.069017	3944.642604	004171
3944.915005	3966.253706	004172
3966.414220	3992.184924	004173
3992.184924	4008.499998	004174
4008.742132	4023.565287	004175
4023.565287	4070.465058	004176
