0.000000	4.212528	bismillah
4.212528	18.600490	006001
18.600490	36.521838	006002
36.687403	46.981692	006003
46.981692	56.647672	006004
56.844564	71.965218	006005
71.965218	106.081553	006006
106.801828	124.655513	006007
124.858927	139.338115	006008
139.338115	149.157554	006009
149.157554	161.389656	006010
161.775306	170.526578	006011
170.526578	196.034632	006012
197.053853	204.973470	006013
205.064608	224.723111	006014
225.024239	233.833976	006015
233.833976	242.744507	006016
242.744507	258.640630	006017
258.814358	266.718988	006018
267.655568	305.986467	006019
306.139460	324.324987	006020
324.521538	337.582297	006021
338.477558	353.357620	006022
353.578740	366.338171	006023
366.338171	376.837266	006024
376.961516	414.411051	006025
414.736883	427.095873	006026
428.050310	442.141312	006027
442.141312	455.408499	006028
455.572292	464.116554	006029
464.116554	484.562465	006030
485.257377	515.752043	006031
515.752043	530.270030	006032
530.270030	546.108546	006033
546.374929	570.124629	006034
570.124629	597.458106	006035
597.692252	608.423397	006036
608.423397	626.403083	006037
626.529692	653.516895	006038
653.737267	673.170514	006039
673.367288	686.926948	006040
687.050907	700.118302	006041
700.118302	716.987522	006042
717.450797	734.397188	006043
734.786754	756.592034	006044
756.826179	765.090128	006045
765.090128	787.395163	006046
787.919298	799.386772	006047
799.386772	813.577377	006048
813.752682	822.521624	006049
822.521624	851.875360	006050
851.875360	869.045761	006051
869.493188	892.661394	006052
892.964169	913.026931	006053
913.026931	943.159417	006054
943.295765	950.200146	006055
950.281561	971.575804	006056
972.699491	994.629590	006057
994.867089	1009.549485	006058
1009.942587	1042.396875	006059
1042.589701	1068.671745	006060
1068.671745	1085.807117	006061
1085.972396	1098.209893	006062
1098.209893	1116.769613	006063
1116.982543	1127.891119	006064
1127.891119	1154.065151	006065
1154.204957	1162.530651	006066
1162.530651	1170.550941	006067
1171.261201	1193.021270	006068
1193.234359	1205.741666	006069
1205.903812	1250.137637	006070
1250.624595	1288.841046	006071
1289.168631	1298.545760	006072
1298.669475	1325.098915	006073
1325.098915	1339.960639	006074
1340.124432	1351.512097	006075
1351.512097	1369.025018	006076
1369.297714	1390.673669	006077
1390.673669	1412.955416	006078
1413.954597	1426.942288	006079
1427.268329	1466.580656	006080
1466.580656	1489.533455	006081
1489.680868	1504.647642	006082
1504.647642	1523.400723	006083
1523.572706	1547.856054	006084
1548.035106	1558.732557	006085
1558.732557	1568.096709	006086
1568.096709	1582.897593	006087
1583.639513	1598.497534	006088
1598.692317	1619.612403	006089
1619.748799	1637.543535	006090
1638.681226	1687.450852	006091
1687.663782	1712.217996	006092
1712.876176	1762.406652	006093
1762.953629	1797.351769	006094
1797.351769	1813.747342	006095
1813.864212	1827.479059	006096
1827.625672	1841.014906	006097
1841.152638	1858.429299	006098
1858.429299	1912.743542	006099
1913.374143	1931.995478	006100
1931.995478	1948.668915	006101
1948.800526	1966.517424	006102
1966.676278	1979.513530	006103
1979.807054	1998.169489	006104
1998.736319	2009.235167	006105
2009.333613	2021.568408	006106
2021.802553	2038.427959	006107
2039.395026	2062.837005	006108
2063.049936	2087.007222	006109
2087.392873	2102.210772	006110
2102.210772	2137.430962	006111
2137.430962	2161.528120	006112
2161.791687	2177.424806	006113
2177.716981	2204.273083	006114
2204.721084	2217.654685	006115
2217.771554	2235.107067	006116
2235.107067	2245.870575	006117
2246.031533	2257.614445	006118
2257.614445	2286.280391	006119
2286.591596	2298.613962	006120
2298.818702	2322.293235	006121
2322.466963	2348.479853	006122
2348.977082	2364.045892	006123
2364.414410	2395.540382	006124
2395.774122	2427.364000	006125
2427.502983	2437.845596	006126
2437.926670	2448.316873	006127
2448.570091	2491.169443	006128
2491.500574	2501.035209	006129
2501.035209	2537.816440	006130
2538.193163	2546.118889	006131
2546.261557	2557.571159	006132
2557.571159	2578.899259	006133
2579.226844	2590.098987	006134
2590.451141	2608.470223	006135
2608.740481	2646.981270	006136
2647.647231	2669.999129	006137
2670.605152	2700.812495	006138
2700.917783	2726.727339	006139
2726.902644	2750.600174	006140
2751.399022	2795.205391	006141
2795.369183	2814.645775	006142
2816.050646	2843.371237	006143
2843.485892	2884.627987	006144
2885.027150	2921.157219	006145
2921.414122	2950.500910	006146
2950.500910	2961.889775	006147
2962.084558	3001.966066	006148
3002.141371	3009.980588	006149
3010.185111	3038.084619	006150
3038.084619	3076.677188	006151
3076.920667	3106.288158	006152
3106.542474	3125.322502	006153
3125.513603	3144.849542	006154
3145.616726	3156.745697	006155
3156.876731	3175.845321	006156
3176.180629	3215.684867	006157
3215.684867	3253.891222	006158
3254.081109	3273.535101	006159
3273.856493	3293.421494	006160
3293.703845	3313.261122	006161
3313.923384	3324.373057	006162
3324.487712	3332.127877	006163
3332.321074	3358.562654	006164
3358.824722	3383.822451	006165
